{
    "KPlugin": {
        "Name": "Is.gd",
        "Name[ar]": "Is.gd",
        "Name[az]": "Is.gd",
        "Name[ca@valencia]": "Is.gd",
        "Name[ca]": "Is.gd",
        "Name[cs]": "Is.gd",
        "Name[da]": "Is.gd",
        "Name[de]": "Is.gd",
        "Name[en_GB]": "Is.gd",
        "Name[es]": "Is.gd",
        "Name[et]": "Is.gd",
        "Name[fi]": "Is.gd",
        "Name[fr]": "Is.gd",
        "Name[gl]": "Is.gd",
        "Name[ia]": "Is.gd",
        "Name[it]": "Is.gd",
        "Name[ko]": "Is.gd",
        "Name[nl]": "Is.gd",
        "Name[pl]": "Is.gd",
        "Name[pt]": "Is.gd",
        "Name[pt_BR]": "Is.gd",
        "Name[ru]": "is.gd",
        "Name[sk]": "Is.gd",
        "Name[sl]": "Is.gd",
        "Name[sr@ijekavian]": "ИзГд",
        "Name[sr@ijekavianlatin]": "IsGd",
        "Name[sr@latin]": "IsGd",
        "Name[sr]": "ИзГд",
        "Name[sv]": "Is.gd",
        "Name[tr]": "Is.gd",
        "Name[uk]": "Is.gd",
        "Name[x-test]": "xxIs.gdxx",
        "Name[zh_CN]": "Is.gd",
        "Version": "1.0"
    }
}
