{
    "KPlugin": {
        "Id": "sendmailtransport",
        "Name": "SendMail Mail Transport",
        "Name[ar]": "نقولات بريد SendMail",
        "Name[az]": "SendMail göndərmə metodu",
        "Name[ca@valencia]": "Transport de correu SendMail",
        "Name[ca]": "Transport de correu SendMail",
        "Name[cs]": "Přenos pošty SendMail",
        "Name[de]": "E-Mail-Transport über SendMail",
        "Name[en_GB]": "SendMail Mail Transport",
        "Name[es]": "Transporte de correo SendMai",
        "Name[et]": "Sendmail",
        "Name[fi]": "SendMail-viestinvälitys",
        "Name[fr]": "Transport de courrier électronique SendMail",
        "Name[gl]": "Transporte de correo SendMail",
        "Name[ia]": "Transporto de ePosta SendMail",
        "Name[it]": "Trasporto della posta SendMail",
        "Name[ko]": "SendMail 메일 전송",
        "Name[nl]": "E-mailtransport SendMail",
        "Name[pl]": "Serwer pocztowy SendMail",
        "Name[pt]": "Transporte de E-Mail do SendMail",
        "Name[pt_BR]": "Transporte de e-mail do SendMail",
        "Name[ru]": "Метод отправки SendMail",
        "Name[sk]": "Poštový prenos SendMail",
        "Name[sl]": "Prenos pošte SendMail",
        "Name[sr@ijekavian]": "Транспорт поште сендмејлом",
        "Name[sr@ijekavianlatin]": "Transport pošte sendmailom",
        "Name[sr@latin]": "Transport pošte sendmailom",
        "Name[sr]": "Транспорт поште сендмејлом",
        "Name[sv]": "SendMail e-postöverföring",
        "Name[tr]": "SenMail Posta İletimi",
        "Name[uk]": "Надсилання пошти SendMail",
        "Name[x-test]": "xxSendMail Mail Transportxx",
        "Name[zh_CN]": "SendMail 邮件传输",
        "Version": "1.0"
    }
}
