{
    "KPlugin": {
        "Id": "nylasmailimporter",
        "Name": "Nylas Mail Importer",
        "Name[ar]": "مستورد «بريد نايلِس»",
        "Name[az]": "Nylas Mail idxalçısı",
        "Name[ca@valencia]": "Importador del Nylas Mail",
        "Name[ca]": "Importador del Nylas Mail",
        "Name[cs]": "Importér Nylas Mail",
        "Name[da]": "Nylas Mail-importør",
        "Name[de]": "Import-Modul für Nylas Mail",
        "Name[en_GB]": "Nylas Mail Importer",
        "Name[es]": "Importador de correo Nylas",
        "Name[et]": "Nylas Maili importija",
        "Name[fi]": "Nylas Mail -tuonti",
        "Name[fr]": "Import Nylas Mail",
        "Name[gl]": "Importador de Nylas Mail",
        "Name[ia]": "Importator de Nylas Mail",
        "Name[it]": "Importatore da Nylas Mail",
        "Name[ko]": "Nylas Mail 가져오기",
        "Name[nl]": "Nylas-e-mail-importeur",
        "Name[pl]": "Importer Poczty Nylas",
        "Name[pt]": "Importador do Nylas Mail",
        "Name[pt_BR]": "Importador do Nylas Mail",
        "Name[ru]": "Импорт из Nylas Mail",
        "Name[sk]": "Importér Nylas Mail",
        "Name[sl]": "Uvoznik iz programa Nylas Mail",
        "Name[sr@ijekavian]": "Увозник из Најласове поште",
        "Name[sr@ijekavianlatin]": "Uvoznik iz Nylasove pošte",
        "Name[sr@latin]": "Uvoznik iz Nylasove pošte",
        "Name[sr]": "Увозник из Најласове поште",
        "Name[sv]": "Nylas Mail-importverktyg",
        "Name[uk]": "Засіб імпортування з Nylas",
        "Name[x-test]": "xxNylas Mail Importerxx",
        "Name[zh_CN]": "Nylas 邮件导入器",
        "Version": "1.0"
    }
}
