{
    "KPlugin": {
        "Description": "This plugin allows you to translate text.",
        "Description[ar]": "تتيح لك هذه الملحقة ترجمة النّصوص.",
        "Description[az]": "Bu əlavə, sizə mətni tərcümə etməyə imkan verir.",
        "Description[ca@valencia]": "Aquest connector permet traduir el text.",
        "Description[ca]": "Aquest connector permet traduir el text.",
        "Description[de]": "Mit diesem Modul können Sie Text übersetzen.",
        "Description[en_GB]": "This plugin allows you to translate text.",
        "Description[es]": "Este complemento le permite traducir texto.",
        "Description[et]": "See plugin võimaldab tõlkida teksti.",
        "Description[fi]": "Tällä liitännäisellä voi tekstiä kääntää.",
        "Description[fr]": "Ce module permet de traduire du texte.",
        "Description[gl]": "Este complemento permítelle traducir texto.",
        "Description[ia]": "Iste plugin te permitte traducer texto.",
        "Description[it]": "Questa estensione permette di tradurre del testo.",
        "Description[ko]": "이 플러그인은 텍스트를 번역합니다.",
        "Description[nl]": "Deze plug-in stelt u in staat tekst te vertalen.",
        "Description[pl]": "Ta wtyczka umożliwia tłumaczenie tekstu.",
        "Description[pt]": "Este 'plugin' permite-lhe traduzir o texto.",
        "Description[pt_BR]": "Este plugin permite a você traduzir o texto.",
        "Description[ru]": "Этот модуль позволяет переводить текст на другой язык.",
        "Description[sk]": "Tento plugin vám umožní preložiť text.",
        "Description[sl]": "Ta vstavek omogoča prevod besedila.",
        "Description[sr@ijekavian]": "Овај прикључак омогућава превођење текста",
        "Description[sr@ijekavianlatin]": "Ovaj priključak omogućava prevođenje teksta",
        "Description[sr@latin]": "Ovaj priključak omogućava prevođenje teksta",
        "Description[sr]": "Овај прикључак омогућава превођење текста",
        "Description[sv]": "Insticksprogrammet gör det möjligt att översätta text.",
        "Description[tr]": "Bu eklenti, metni çevirmenize imkan verir.",
        "Description[uk]": "За допомогою цього додатка можна перекладати тексти.",
        "Description[x-test]": "xxThis plugin allows you to translate text.xx",
        "Description[zh_CN]": "此插件允许您翻译文本。",
        "EnabledByDefault": "true",
        "Id": "customtoolstranslator",
        "Name": "Translator",
        "Name[ar]": "المترجم",
        "Name[az]": "Tərcüməçi",
        "Name[ca@valencia]": "Traductor",
        "Name[ca]": "Traductor",
        "Name[cs]": "Překladatel",
        "Name[da]": "Oversætter",
        "Name[de]": "Übersetzung",
        "Name[en_GB]": "Translator",
        "Name[es]": "Traductor",
        "Name[et]": "Tõlketeenus",
        "Name[fi]": "Käännösohjelma",
        "Name[fr]": "Traducteur",
        "Name[gl]": "Tradutor",
        "Name[ia]": "Traductor",
        "Name[it]": "Traduttore",
        "Name[ko]": "번역기",
        "Name[nl]": "Vertaler",
        "Name[pl]": "Tłumacz",
        "Name[pt]": "Tradutor",
        "Name[pt_BR]": "Tradutor",
        "Name[ru]": "Машинный перевод",
        "Name[sk]": "Prekladateľ",
        "Name[sl]": "Prevajalnik",
        "Name[sr@ijekavian]": "Преводилац",
        "Name[sr@ijekavianlatin]": "Prevodilac",
        "Name[sr@latin]": "Prevodilac",
        "Name[sr]": "Преводилац",
        "Name[sv]": "Översättning",
        "Name[tr]": "Çeviren",
        "Name[uk]": "Перекладач",
        "Name[x-test]": "xxTranslatorxx",
        "Name[zh_CN]": "翻译服务",
        "Version": "1.0"
    }
}
