{
    "KPlugin": {
        "Description": "This plugin allows you to create a todo from a message.",
        "Description[ar]": "تتيح لك هذه الملحقة إنشاء مهمّة من رسالة ما.",
        "Description[az]": "Bu əlavə, məktub əsasında tapşırıq yaratmağa imkan verir.",
        "Description[ca@valencia]": "Aquest connector permet crear una tasca pendent a partir d'un missatge.",
        "Description[ca]": "Aquest connector permet crear una tasca pendent a partir d'un missatge.",
        "Description[de]": "Mit diesem Modul können Sie eine Aufgabe aus einer Nachricht erstellen.",
        "Description[en_GB]": "This plugin allows you to create a todo from a message.",
        "Description[es]": "Este complemento le permite crear una tarea pendiente desde un mensaje.",
        "Description[et]": "See plugin võimaldab luua kirja põhjal ülesande.",
        "Description[fi]": "Tällä liitännäisellä voi luoda viestistä tehtävän.",
        "Description[fr]": "Ce module permet de créer une tâche à partir d'un message.",
        "Description[gl]": "Este complemento permítelle crear unha tarefa a partir dunha mensaxe.",
        "Description[ia]": "Iste plugin te permitte crear un action de facer ex un message.",
        "Description[it]": "Questa estensione permette di creare una cosa da fare da un messaggio.",
        "Description[ko]": "이 플러그인은 메시지에서 할 일을 만듭니다.",
        "Description[nl]": "Deze plug-in stelt u in staat een taak te maken uit een bericht.",
        "Description[pl]": "Ta wtyczka umożliwia utworzenie zadania z wiadomości.",
        "Description[pt]": "Este 'plugin' permite-lhe criar um item por-fazer a partir de uma mensagem.",
        "Description[pt_BR]": "Este plugin permite a você criar uma tarefa a partir de uma mensagem.",
        "Description[ru]": "Этот модуль позволяет создавать задачи на основе писем.",
        "Description[sk]": "Tento plugin vám umožní vytvoriť úlohu zo správy.",
        "Description[sl]": "Ta vstavek vam omogoča iz sporočila ustvariti opravilo.",
        "Description[sr@ijekavian]": "Овај прикључак омогућава стварање обавезе на основу поруке",
        "Description[sr@ijekavianlatin]": "Ovaj priključak omogućava stvaranje obaveze na osnovu poruke",
        "Description[sr@latin]": "Ovaj priključak omogućava stvaranje obaveze na osnovu poruke",
        "Description[sr]": "Овај прикључак омогућава стварање обавезе на основу поруке",
        "Description[sv]": "Insticksprogrammet gör det möjligt att skapa en uppgift från ett brev.",
        "Description[tr]": "Bu eklenti, bir iletiden yapılacak ögesi oluşturmanıza imkan verir.",
        "Description[uk]": "За допомогою цього додатка можна створювати записи завдань на основі повідомлення.",
        "Description[x-test]": "xxThis plugin allows you to create a todo from a message.xx",
        "Description[zh_CN]": "此插件允许您从信件创建待办事项。",
        "EnabledByDefault": "false",
        "Id": "messageviewercreatetodoplugin",
        "Name": "Create Todo",
        "Name[ar]": "إنشاء المهامّ",
        "Name[az]": "Tapşırıq yaradın",
        "Name[ca@valencia]": "Crea una tasca pendent",
        "Name[ca]": "Crea una tasca pendent",
        "Name[cs]": "Vytvořit úlohu",
        "Name[da]": "Opret gøremål",
        "Name[de]": "Aufgabe erstellen",
        "Name[en_GB]": "Create Todo",
        "Name[es]": "Crear tarea pendiente",
        "Name[et]": "Ülesande loomine",
        "Name[fi]": "Luo tehtävä",
        "Name[fr]": "Créer une tâche",
        "Name[gl]": "Crear unha tarefa pendente",
        "Name[ia]": "Crea De Facer",
        "Name[it]": "Crea cosa da fare",
        "Name[ko]": "할 일 만들기",
        "Name[nl]": "Te-doen aanmaken",
        "Name[pl]": "Utwórz zadanie",
        "Name[pt]": "Criar um Item Por-Fazer",
        "Name[pt_BR]": "Criar tarefa",
        "Name[ru]": "Создание задач",
        "Name[sk]": "Vytvoriť úlohu",
        "Name[sl]": "Ustvari opravilo",
        "Name[sr@ijekavian]": "Направи обавезу",
        "Name[sr@ijekavianlatin]": "Napravi obavezu",
        "Name[sr@latin]": "Napravi obavezu",
        "Name[sr]": "Направи обавезу",
        "Name[sv]": "Skapa uppgift",
        "Name[tr]": "Yapılacak Ögesi Oluştur",
        "Name[uk]": "Створення запису завдання",
        "Name[x-test]": "xxCreate Todoxx",
        "Name[zh_CN]": "创建待办事项",
        "Version": "2.0"
    }
}
