{
    "KPlugin": {
        "Description": "This plugin allows you to generate html from markdown language",
        "Description[ar]": "تتيح لك هذه الملحقة HTML من لغة مارك‌داون",
        "Description[az]": "Bu əlavə, sizə markdown dilindən html yaratmağa imkan verir",
        "Description[ca@valencia]": "Aquest connector permet generar HTML a partir del llenguatge Markdown",
        "Description[ca]": "Aquest connector permet generar HTML a partir del llenguatge Markdown",
        "Description[de]": "Mit diesem Modul können Sie HTML aus der Sprache Markdown erstellen.",
        "Description[en_GB]": "This plugin allows you to generate html from markdown language",
        "Description[es]": "Este complemento le permite generar html desde un lenguaje de marcas",
        "Description[et]": "See plugin võimaldab genereerida HTMLi Markdowni keele põhjal.",
        "Description[fi]": "Tällä liitännäisellä voi luoda Markdownista HTML:ää",
        "Description[fr]": "Ce module permet de générer du HTML à partir du langage « Markdown ».",
        "Description[gl]": "Este complemento permítelle xerar HTML a partir de linguaxe Markdown.",
        "Description[ia]": "Iste plugin te permitte generar html ex linguage markdown",
        "Description[it]": "Questa estensione permette di generare HTML dal linguaggio Markdown",
        "Description[ko]": "이 플러그인은 Markdown 언어에서 HTML 메시지를 생성합니다",
        "Description[nl]": "Deze plug-in stelt u in staat html te maken uit een markdown-taal.",
        "Description[pl]": "Ta wtyczka umożliwia utworzenie html z języka markdown",
        "Description[pt]": "Este 'plugin' permite-lhe gerar HTML a partir da linguagem Markdown",
        "Description[pt_BR]": "Este plugin permite a você gerar HTML a partir da linguagem Markdown",
        "Description[ru]": "Этот модуль позволяет преобразовывать текст с разметкой Markdown в формат HTML.",
        "Description[sk]": "Tento doplnok umožňuje generovať html z jazyka Markdown",
        "Description[sl]": "Ta vtičnik vam omogoča, da ustvarite html iz besedila v formatu markdown",
        "Description[sv]": "Insticksprogrammet gör det möjligt att skapa HTML från språket Markdown",
        "Description[uk]": "За допомогою цього додатка можна створювати сторінки HTML на основі коду мовою Markdown.",
        "Description[x-test]": "xxThis plugin allows you to generate html from markdown languagexx",
        "Description[zh_CN]": "此插件允许您根据 Markdown 语言生成 HTML",
        "EnabledByDefault": "false",
        "Id": "kmailmarkdown",
        "Name": "Markdown",
        "Name[ar]": "مارك‌داون",
        "Name[az]": "Markdown",
        "Name[ca@valencia]": "Markdown",
        "Name[ca]": "Markdown",
        "Name[cs]": "Markdown",
        "Name[da]": "Markdown",
        "Name[de]": "Markdown",
        "Name[en_GB]": "Markdown",
        "Name[es]": "Marcado",
        "Name[et]": "Markdown",
        "Name[fi]": "Markdown",
        "Name[fr]": "Markdown",
        "Name[gl]": "Markdown",
        "Name[ia]": "Markdown",
        "Name[it]": "Markdown",
        "Name[ko]": "Markdown",
        "Name[nl]": "Markdown",
        "Name[pl]": "Markdown",
        "Name[pt]": "Markdown",
        "Name[pt_BR]": "Markdown",
        "Name[ru]": "Markdown",
        "Name[sk]": "Markdown",
        "Name[sl]": "Markdown",
        "Name[sv]": "Markdown",
        "Name[uk]": "Markdown",
        "Name[x-test]": "xxMarkdownxx",
        "Name[zh_CN]": "Markdown",
        "Version": "1.0"
    }
}
