{
    "KPlugin": {
        "Description": "This plugin allows you to import/export LDAP contacts.",
        "Description[ar]": "تتيح لك هذه الملحقة استيراد وتصدير متراسلي LDAP.",
        "Description[az]": "Bu əlavə, sizə LDAP-ları idxal/ixrac etməyə imkan verir.",
        "Description[ca@valencia]": "Aquest connector permet importar o exportar els contactes LDAP.",
        "Description[ca]": "Aquest connector permet importar o exportar els contactes LDAP.",
        "Description[cs]": "Tento modul umožňuje import/export kontaktů LDAP.",
        "Description[de]": "Mit diesem Modul können Sie LDAP-Kontakte importieren oder exportieren.",
        "Description[en_GB]": "This plugin allows you to import/export LDAP contacts.",
        "Description[es]": "Este complemento le permite importar/exportar contactos LDAP.",
        "Description[et]": "See plugin võimaldab importida ja eksportida LDAP kontakte.",
        "Description[fi]": "Tällä liitännäisellä voi tuoda ja viedä LDAP-yhteystietoja.",
        "Description[fr]": "Ce module permet d'importer / exporter des contacts LDAP.",
        "Description[gl]": "Este complemento permítelle importar e exportar contactos de LDAP.",
        "Description[ia]": "Iste plugin te permitte importar/exportar contactos de LDAP .",
        "Description[it]": "Questa estensione permette di importare ed esportare contatti LDAP.",
        "Description[ko]": "이 플러그인은 LDAP 연락처를 가져오거나 내보냅니다.",
        "Description[nl]": "Deze plug-in stelt u in staat LDAP contactpersonen te importeren/exporteren.",
        "Description[pl]": "Ta wtyczka umożliwia importowanie/eksportowanie kontaktów LDAP.",
        "Description[pt]": "Este 'plugin' permite-lhe importar/exportar contactos da LDAP.",
        "Description[pt_BR]": "Este plugin permite a você importar/exportar contatos do LDAP.",
        "Description[ru]": "Этот модуль позволяет импортировать и экспортировать контакты из/в LDAP.",
        "Description[sk]": "Tento plugin vám umožní importovať a exportovať LDAP kontakty.",
        "Description[sl]": "Ta vstavek omogoča uvoz/izvoz stikov LDAP.",
        "Description[sr@ijekavian]": "Овај прикључак омогућава увоз и извоз ЛДАП контаката",
        "Description[sr@ijekavianlatin]": "Ovaj priključak omogućava uvoz i izvoz LDAP kontakata",
        "Description[sr@latin]": "Ovaj priključak omogućava uvoz i izvoz LDAP kontakata",
        "Description[sr]": "Овај прикључак омогућава увоз и извоз ЛДАП контаката",
        "Description[sv]": "Insticksprogrammet gör det möjligt att importera och exportera LDAP-kontakter.",
        "Description[tr]": "Bu eklenti, LDAP kişilerini içe/dışa aktarmanıza imkan verir.",
        "Description[uk]": "За допомогою цього додатка можна імпортувати та експортувати дані у форматі записів контактів LDAP.",
        "Description[x-test]": "xxThis plugin allows you to import/export LDAP contacts.xx",
        "Description[zh_CN]": "此插件能让您导入或导出 LDAP 联系人。",
        "EnabledByDefault": "false",
        "Id": "kaddressbookimportexportldap",
        "Name": "Import/Export LDAP Contacts",
        "Name[ar]": "استيراد/تصدير متراسلو LDAP",
        "Name[az]": "LDAP idxal/ixrac",
        "Name[ca@valencia]": "Importa/exporta els contactes LDAP",
        "Name[ca]": "Importa/exporta els contactes LDAP",
        "Name[cs]": "Importovat/Exportovat kontakty LDAP",
        "Name[de]": "LDAP-Kontakte importieren/exportieren",
        "Name[en_GB]": "Import/Export LDAP Contacts",
        "Name[es]": "Importar/Exportar contactos LDAP",
        "Name[et]": "LDAP kontaktide import/eksport",
        "Name[fi]": "Tuo/vie LDAP-tietoja",
        "Name[fr]": "Import / export de contacts LDAP",
        "Name[gl]": "Importar e exportar contactos de LDAP",
        "Name[ia]": "Importa/exporta contactos de LDAP",
        "Name[it]": "Importa/esporta contatti LDAP",
        "Name[ko]": "LDAP 연락처 가져오기/내보내기",
        "Name[nl]": "LDAP contactpersonen importeren/exporteren",
        "Name[pl]": "Zaimportuj/wyeksportuj kontakt LDAP",
        "Name[pt]": "Importação/Exportação de Contactos LDAP",
        "Name[pt_BR]": "Importação/Exportação de contatos LDAP",
        "Name[ru]": "Импорт и экспорт контактов из/в LDAP",
        "Name[sk]": "Import/Export LDAP kontakty",
        "Name[sl]": "Uvozi/izvozi stike LDAP",
        "Name[sr@ijekavian]": "Увоз/извоз ЛДАП контаката",
        "Name[sr@ijekavianlatin]": "Uvoz/izvoz LDAP kontakata",
        "Name[sr@latin]": "Uvoz/izvoz LDAP kontakata",
        "Name[sr]": "Увоз/извоз ЛДАП контаката",
        "Name[sv]": "Importera och exportera LDAP-kontakter",
        "Name[tr]": "LDAP Kişilerini İçe/Dışa Aktar",
        "Name[uk]": "Імпортування та експортування записів контактів LDAP",
        "Name[x-test]": "xxImport/Export LDAP Contactsxx",
        "Name[zh_CN]": "导入/导出 LDAP 联系人",
        "Version": "1.0"
    }
}
