{
    "KPlugin": {
        "Description": "This plugin allows you to configure Anti Virus in KMail.",
        "Description[ar]": "تتيح لك هذه الملحقة ضبط مضادّ الڤيروسات في «بريدك».",
        "Description[az]": "Bu əlavə, sizə KMail-də antivirusu tənzimləməyə imkan verir.",
        "Description[ca@valencia]": "Aquest connector permet configurar l'antivirus en el KMail.",
        "Description[ca]": "Aquest connector permet configurar l'antivirus en el KMail.",
        "Description[de]": "Mit diesem Modul können Sie die Anti-Virus-Funktion in KMail einrichten.",
        "Description[en_GB]": "This plugin allows you to configure Anti Virus in KMail.",
        "Description[es]": "Este complemento le permite configurar un antivirus en KMail.",
        "Description[et]": "See plugin võimaldab seadistada KMaili viirusevastast filtrit.",
        "Description[fi]": "Tällä liitännäisellä voi muuttaa KMailin virustorjunta-asetuksia.",
        "Description[fr]": "Ce module permet de configurer l'antivirus dans KMail.",
        "Description[gl]": "Este complemento permítelle configurar un antivirus en KMail.",
        "Description[ia]": "Iste plugin te permitte configurar Anti Virus in KMail.",
        "Description[it]": "Questa estensione permette di configurare il servizio antivirus in KMail.",
        "Description[ko]": "이 플러그인은 KMail의 안티바이러스 기능을 제공합니다.",
        "Description[nl]": "Deze plugin stelt u in staat om Anti-virus in KMail in te stellen.",
        "Description[pl]": "Ta wtyczka umożliwia ustawienie programu antywirusowego w KMail.",
        "Description[pt]": "Este 'plugin' permite configurar o módulo Anti-Vírus no KMail.",
        "Description[pt_BR]": "Este plugin permite a você configurar o antivírus no KMail.",
        "Description[ru]": "Этот модуль позволяет настроить антивирус в KMail.",
        "Description[sk]": "Tento plugin vám umožní nastaviť antivírus v KMail.",
        "Description[sl]": "Ta vstavek omogoča nastavitev protivirusnega programa v KMail-u.",
        "Description[sr@ijekavian]": "Овај прикључак омогућава подешавање заштите од вируса у К‑пошти",
        "Description[sr@ijekavianlatin]": "Ovaj priključak omogućava podešavanje zaštite od virusa u K‑pošti",
        "Description[sr@latin]": "Ovaj priključak omogućava podešavanje zaštite od virusa u K‑pošti",
        "Description[sr]": "Овај прикључак омогућава подешавање заштите од вируса у К‑пошти",
        "Description[sv]": "Insticksprogrammet gör det möjligt att anpassa virushantering i Kmail.",
        "Description[tr]": "Bu eklenti, KMail içinde Anti Virüs yapılandırmanıza imkan verir.",
        "Description[uk]": "За допомогою цього додатка можна налаштувати антивірус у KMail.",
        "Description[x-test]": "xxThis plugin allows you to configure Anti Virus in KMail.xx",
        "Description[zh_CN]": "此插件允许您配置 KMail 防病毒机制。",
        "EnabledByDefault": "false",
        "Id": "kmailantivirus",
        "Name": "Antivirus",
        "Name[ar]": "مضادّ الڤيروسات",
        "Name[az]": "Antivirus",
        "Name[ca@valencia]": "Contra els virus",
        "Name[ca]": "Contra els virus",
        "Name[cs]": "Antivirus",
        "Name[da]": "Antivirus",
        "Name[de]": "Anti-Virus",
        "Name[en_GB]": "Antivirus",
        "Name[es]": "Antivirus",
        "Name[et]": "Võitlus viirustega",
        "Name[fi]": "Virusten suodatus",
        "Name[fr]": "Antivirus",
        "Name[gl]": "Antivirus",
        "Name[ia]": "Antivirus",
        "Name[it]": "Antivirus",
        "Name[ko]": "안티바이러스",
        "Name[nl]": "Antivirus",
        "Name[pl]": "Antywirus",
        "Name[pt]": "Anti-Vírus",
        "Name[pt_BR]": "Antivírus",
        "Name[ru]": "Антивирус",
        "Name[sk]": "Antivírus",
        "Name[sl]": "Proti virusom",
        "Name[sr@ijekavian]": "Противвирусни",
        "Name[sr@ijekavianlatin]": "Protivvirusni",
        "Name[sr@latin]": "Protivvirusni",
        "Name[sr]": "Противвирусни",
        "Name[sv]": "Antivirus",
        "Name[tr]": "Antivirüs",
        "Name[uk]": "Антивірус",
        "Name[x-test]": "xxAntivirusxx",
        "Name[zh_CN]": "病毒防御",
        "Version": "1.0"
    }
}
