{
    "KPlugin": {
        "Description": "This plugin allows you to create a note from a message.",
        "Description[ar]": "تتيح لك هذه الملحقة إنشاء ملاحظة من رسالة ما.",
        "Description[az]": "Bu əlavə, məktubdan qeydlər aparmağa imkan verir.",
        "Description[ca@valencia]": "Aquest connector permet crear una nota a partir d'un missatge.",
        "Description[ca]": "Aquest connector permet crear una nota a partir d'un missatge.",
        "Description[de]": "Mit diesem Modul können Sie eine Notiz aus einer Nachricht erstellen.",
        "Description[en_GB]": "This plugin allows you to create a note from a message.",
        "Description[es]": "Este complemento le permite crear una nota desde un mensaje.",
        "Description[et]": "See plugin võimaldab luua kirja põhjal sedeli.",
        "Description[fi]": "Tällä liitännäisellä voi luoda viestistä muistiinpanon.",
        "Description[fr]": "Ce module permet de créer une note à partir d'un message.",
        "Description[gl]": "Este complemento permítelle crear unha nota a partir dunha mensaxe.",
        "Description[ia]": "Iste plugin te permitte crear un nota ex un message.",
        "Description[it]": "Questa estensione permette di creare una nota da un messaggio.",
        "Description[ko]": "이 플러그인은 메시지에서 메모를 만듭니다.",
        "Description[nl]": "Deze plug-in stelt u in staat een notitie te maken uit een bericht.",
        "Description[pl]": "Ta wtyczka umożliwia utworzenie notatki z wiadomości.",
        "Description[pt]": "Este 'plugin' permite-lhe criar uma nota a partir de uma mensagem.",
        "Description[pt_BR]": "Este plugin permite a você criar uma nota a partir de uma mensagem.",
        "Description[ru]": "Этот модуль позволяет создавать заметки на основе писем.",
        "Description[sk]": "Tento plugin vám umožní vytvoriť poznámku zo správy.",
        "Description[sl]": "Ta vstavek vam omogoča iz sporočila ustvariti sporočilce.",
        "Description[sr@ijekavian]": "Овај прикључак омогућава стварање белешке на основу поруке",
        "Description[sr@ijekavianlatin]": "Ovaj priključak omogućava stvaranje beleške na osnovu poruke",
        "Description[sr@latin]": "Ovaj priključak omogućava stvaranje beleške na osnovu poruke",
        "Description[sr]": "Овај прикључак омогућава стварање белешке на основу поруке",
        "Description[sv]": "Insticksprogrammet gör det möjligt att skapa en anteckning av ett brev.",
        "Description[tr]": "Bu eklenti, bir iletiden not oluşturmanıza imkan verir.",
        "Description[uk]": "За допомогою цього додатка можна створювати нотатки на основі повідомлення.",
        "Description[x-test]": "xxThis plugin allows you to create a note from a message.xx",
        "Description[zh_CN]": "此插件允许您从信件创建便笺。",
        "EnabledByDefault": "false",
        "Id": "messageviewercreatenoteplugin",
        "Name": "Create Note",
        "Name[ar]": "إنشاء ملاحظة",
        "Name[az]": "Qeyd yazın",
        "Name[ca@valencia]": "Crea una nota",
        "Name[ca]": "Crea una nota",
        "Name[cs]": "Vytvořit poznámku",
        "Name[da]": "Opret note",
        "Name[de]": "Notiz erstellen",
        "Name[en_GB]": "Create Note",
        "Name[es]": "Crear nota",
        "Name[et]": "Sedeli loomine",
        "Name[fi]": "Luo muistiinpano",
        "Name[fr]": "Créer une note",
        "Name[gl]": "Crear unha nota",
        "Name[ia]": "Crea nota",
        "Name[it]": "Crea nota",
        "Name[ko]": "메모 만들기",
        "Name[nl]": "Notitie aanmaken",
        "Name[pl]": "Utwórz notatkę",
        "Name[pt]": "Criar uma Nota",
        "Name[pt_BR]": "Criar nota",
        "Name[ru]": "Создание заметок",
        "Name[sk]": "Vytvoriť poznámku",
        "Name[sl]": "Ustvari sporočilce",
        "Name[sr@ijekavian]": "Направи белешку",
        "Name[sr@ijekavianlatin]": "Napravi belešku",
        "Name[sr@latin]": "Napravi belešku",
        "Name[sr]": "Направи белешку",
        "Name[sv]": "Skapa anteckning",
        "Name[tr]": "Not Oluştur",
        "Name[uk]": "Створення нотатки",
        "Name[x-test]": "xxCreate Notexx",
        "Name[zh_CN]": "创建便笺",
        "Version": "2.0"
    }
}
