{
    "KPlugin": {
        "Description": "This plugin allows you to check the Gravatar images.",
        "Description[ar]": "تتيح لك هذه الملحقة فحص صور «غراڤاتار».",
        "Description[az]": "Bu əlavə, sizə Gravatar şəkillərini istifadə etməyə imkan verir.",
        "Description[ca@valencia]": "Aquest connector permet comprovar les imatges «Gravatar».",
        "Description[ca]": "Aquest connector permet comprovar les imatges «Gravatar».",
        "Description[cs]": "Tento modul umožňuje kontrolovat obrázky Gravatar.",
        "Description[de]": "Mit diesem Modul können Sie Gravatar-Bilder überprüfen.",
        "Description[en_GB]": "This plugin allows you to check the Gravatar images.",
        "Description[es]": "Este complemento le permite comprobar las imágenes de Gravatar.",
        "Description[et]": "See plugin võimaldab kontrolliga gravatari pilte.",
        "Description[fi]": "Tällä liitännäisellä voi tarkistaa Gravatar-kuvia.",
        "Description[fr]": "Ce module permet de vérifier les images Gravatar.",
        "Description[gl]": "Este complemento permítelle comprobar as imaxes de Gravatar.",
        "Description[ia]": "Iste plugin te permitte verificar le images de Gravatar.",
        "Description[it]": "Questa estensione permette di verificare le immagini Gravatar.",
        "Description[ko]": "이 플러그인은 Gravatar 사진을 보여 줍니다.",
        "Description[nl]": "Deze plug-in stelt u in staat Gravatar-afbeeldingen te controleren.",
        "Description[pl]": "Ta wtyczka umożliwia sprawdzenie obrazów Gravataru.",
        "Description[pt]": "Este 'plugin' permite-lhe verificar o 'gravatar'.",
        "Description[pt_BR]": "Este plugin permite a você verificar as imagens do Gravatar.",
        "Description[ru]": "Этот модуль позволяет использовать Gravatar.",
        "Description[sk]": "Tento plugin vám umožní skontrolovať Gravatar obrázky.",
        "Description[sl]": "Ta vstavek omogoča preverjanje za slikami Gravatar.",
        "Description[sr@ijekavian]": "Овај прикључак омогућава проверавање граватарских слика",
        "Description[sr@ijekavianlatin]": "Ovaj priključak omogućava proveravanje gravatarskih slika",
        "Description[sr@latin]": "Ovaj priključak omogućava proveravanje gravatarskih slika",
        "Description[sr]": "Овај прикључак омогућава проверавање граватарских слика",
        "Description[sv]": "Insticksprogrammet gör det möjligt kontrollera Gravatar-bilder.",
        "Description[tr]": "Bu eklenti, Gravatar resimlerini kontrol etmenize imkan verir.",
        "Description[uk]": "За допомогою цього додатка можна визначати зображення gravatar.",
        "Description[x-test]": "xxThis plugin allows you to check the Gravatar images.xx",
        "Description[zh_CN]": "此插件允许您检查 Gravatar 头像。",
        "EnabledByDefault": "false",
        "Id": "kaddressbookcheckgravatar",
        "Name": "Check Gravatar",
        "Name[ar]": "فحص «غراڤاتار»",
        "Name[az]": "Gravatar ilə inteqrasiya",
        "Name[ca@valencia]": "Comprova el «Gravatar»",
        "Name[ca]": "Comprova el «Gravatar»",
        "Name[cs]": "Zkontrolovat Gravatar",
        "Name[da]": "Tjek gravatar",
        "Name[de]": "Gravatar überprüfen",
        "Name[en_GB]": "Check Gravatar",
        "Name[es]": "Comprobar Gravatar",
        "Name[et]": "Gravatari kontroll",
        "Name[fi]": "Tarkista Gravatar",
        "Name[fr]": "Vérifier Gravatar",
        "Name[gl]": "Comprobar en Gravatar",
        "Name[ia]": "Verifica Gravatar ",
        "Name[it]": "Controlla il Gravatar",
        "Name[ko]": "Gravatar 확인",
        "Name[nl]": "Gravatar controleren",
        "Name[pl]": "Sprawdź Gravatar",
        "Name[pt]": "Verificar o Gravatar",
        "Name[pt_BR]": "Verificar o Gravatar",
        "Name[ru]": "Интеграция с Gravatar",
        "Name[sk]": "Skontrolovať Gravatar",
        "Name[sl]": "Preveri Gravatar",
        "Name[sr@ijekavian]": "Провери граватар",
        "Name[sr@ijekavianlatin]": "Proveri gravatar",
        "Name[sr@latin]": "Proveri gravatar",
        "Name[sr]": "Провери граватар",
        "Name[sv]": "Kontrollera Gravatar",
        "Name[tr]": "Gravatar Kontrol Et",
        "Name[uk]": "Перевірити gravatar",
        "Name[x-test]": "xxCheck Gravatarxx",
        "Name[zh_CN]": "检查 Gravatar 头像",
        "Version": "1.0"
    }
}
