{
    "KPlugin": {
        "Description": "This plugin activates some expert actions.",
        "Description[ar]": "تفعّل هذه الملحقة بعض الإجراءات المتقدّمة.",
        "Description[az]": "Bu əlavə, təcrübəli istifadəçilər üçün bəzi əməlləri aktiv edir.",
        "Description[ca@valencia]": "Aquest connector activa diverses accions expertes.",
        "Description[ca]": "Aquest connector activa diverses accions expertes.",
        "Description[de]": "Mit diesem Modul können Sie Aktionen für Experten aktivieren.",
        "Description[en_GB]": "This plugin activates some expert actions.",
        "Description[es]": "Este complemento activa algunas acciones expertas.",
        "Description[et]": "See plugin võimaldab mõningaid ekspertidele mõeldud toiminguid.",
        "Description[fi]": "Tämä liitännäinen aktivoi jotkin asiantuntijatoiminnot.",
        "Description[fr]": "Ce module active certaines actions en mode expert.",
        "Description[gl]": "Este complemento activa algunhas accións de expertos.",
        "Description[ia]": "Iste plugin activa alcun actiones de experto.",
        "Description[it]": "Questa estensione attiva alcune azioni per esperti.",
        "Description[ko]": "이 플러그인은 전문가 작업을 활성화합니다.",
        "Description[nl]": "Deze plug-in activeert enige acties voor experts.",
        "Description[pl]": "Ta wtyczka włącza pewne działania eksperckie.",
        "Description[pt]": "Este 'plugin' activa algumas funcionalidades avançadas.",
        "Description[pt_BR]": "Este plugin ativa algumas ações avançadas.",
        "Description[ru]": "Этот модуль включает действия для опытных пользователей.",
        "Description[sk]": "Tento plugin sprístupní niektoré akcie pre expertov.",
        "Description[sl]": "Ta vstavek omogoči nekaj naprednih dejanj.",
        "Description[sr@ijekavian]": "Овај прикључак активира неке стручне радње",
        "Description[sr@ijekavianlatin]": "Ovaj priključak aktivira neke stručne radnje",
        "Description[sr@latin]": "Ovaj priključak aktivira neke stručne radnje",
        "Description[sr]": "Овај прикључак активира неке стручне радње",
        "Description[sv]": "Insticksprogrammet aktiverar några expertalternativ.",
        "Description[uk]": "За допомогою цього додатка можна увімкнути деякі дії для досвідчених користувачів.",
        "Description[x-test]": "xxThis plugin activates some expert actions.xx",
        "Description[zh_CN]": "此插件激活一些专家操作。",
        "EnabledByDefault": "false",
        "Id": "kmailexpert",
        "Name": "Expert Plugin",
        "Name[ar]": "ملحقة الخبراء",
        "Name[az]": "Təcrübəli istifadəçilər üçün",
        "Name[ca@valencia]": "Connector expert",
        "Name[ca]": "Connector expert",
        "Name[da]": "Ekspert-plugin",
        "Name[de]": "Experten-Modul",
        "Name[en_GB]": "Expert Plugin",
        "Name[es]": "Complemento experto",
        "Name[et]": "Ekspertplugin",
        "Name[fi]": "Asiantuntijaliitännäinen",
        "Name[fr]": "Module expert",
        "Name[gl]": "Complemento de experto",
        "Name[ia]": "Plugin Experto",
        "Name[it]": "Estensione per esperti",
        "Name[ko]": "전문가 플러그인",
        "Name[nl]": "Plug-in voor expert",
        "Name[pl]": "Wtyczka eksperta",
        "Name[pt]": "'Plugin' Avançado",
        "Name[pt_BR]": "Plugin Avançado",
        "Name[ru]": "Действия для опытных пользователей",
        "Name[sk]": "Expert Plugin",
        "Name[sl]": "Napredni vstavek",
        "Name[sr@ijekavian]": "Стручни прикључак",
        "Name[sr@ijekavianlatin]": "Stručni priključak",
        "Name[sr@latin]": "Stručni priključak",
        "Name[sr]": "Стручни прикључак",
        "Name[sv]": "Expertinsticksprogram",
        "Name[uk]": "Додаток експерта",
        "Name[x-test]": "xxExpert Pluginxx",
        "Name[zh_CN]": "专家插件",
        "Version": "1.0"
    }
}
