{
    "KPlugin": {
        "Description": "This plugin allows you to import/export GMX.",
        "Description[ar]": "تتيح لك هذه الملحقة استيراد وتصدير GMX.",
        "Description[az]": "Bu əlavə, sizə GMX-ləri idxal/ixrac etməyə imkan verir.",
        "Description[ca@valencia]": "Aquest connector permet importar o exportar els GMX.",
        "Description[ca]": "Aquest connector permet importar o exportar els GMX.",
        "Description[cs]": "Tento modul umožňuje import/export GMX.",
        "Description[de]": "Mit diesem Modul können Sie GMX importieren oder exportieren.",
        "Description[en_GB]": "This plugin allows you to import/export GMX.",
        "Description[es]": "Este complemento le permite importar/exportar GMX.",
        "Description[et]": "See plugin võimaldab importida ja eksportida GMX.",
        "Description[fi]": "Tällä liitännäisellä voi tuoda ja viedä GMX-tiedostoja.",
        "Description[fr]": "Ce module permet d'importer / exporter en GMX.",
        "Description[gl]": "Este complemento permítelle importar e exportar GMX.",
        "Description[ia]": "Iste plugin te permitte importar/exportar GMX.",
        "Description[it]": "Questa estensione permette di importare ed esportare GMX.",
        "Description[ko]": "이 플러그인은 GMX에서 가져오거나 내보냅니다.",
        "Description[nl]": "Deze plug-in stelt u in staat GMX te importeren/exporteren.",
        "Description[pl]": "Ta wtyczka umożliwia importowanie/eksportowanie GMX.",
        "Description[pt]": "Este 'plugin' permite-lhe importar/exportar dados em GMX.",
        "Description[pt_BR]": "Este plugin permite a você importar/exportar do GMX.",
        "Description[ru]": "Этот модуль позволяет импортировать и экспортировать из/в GMX.",
        "Description[sk]": "Tento plugin vám umožní importovať a exportovať GMX.",
        "Description[sl]": "Ta vstavek omogoča uvoz/izvoz datotek GMX.",
        "Description[sr@ijekavian]": "Овај прикључак омогућава увоз и извоз са ГМИкс‑а",
        "Description[sr@ijekavianlatin]": "Ovaj priključak omogućava uvoz i izvoz sa GMX‑a",
        "Description[sr@latin]": "Ovaj priključak omogućava uvoz i izvoz sa GMX‑a",
        "Description[sr]": "Овај прикључак омогућава увоз и извоз са ГМИкс‑а",
        "Description[sv]": "Insticksprogrammet gör det möjligt att importera och exportera GMX.",
        "Description[tr]": "Bu eklenti, GMX içe/dışa aktarmanıza imkan verir.",
        "Description[uk]": "За допомогою цього додатка можна імпортувати та експортувати дані у форматі GMX.",
        "Description[x-test]": "xxThis plugin allows you to import/export GMX.xx",
        "Description[zh_CN]": "此插件能让您导入或导出 GMX。",
        "EnabledByDefault": "false",
        "Id": "kaddressbookimportexportgmx",
        "Name": "Import Export GMX",
        "Name[ar]": "استيراد وتصدير GMX",
        "Name[az]": "GMX idxal/ixrac",
        "Name[ca@valencia]": "Importa/exporta el GMX",
        "Name[ca]": "Importa/exporta el GMX",
        "Name[cs]": "Importovat/Exportovat GMX",
        "Name[de]": "GMX importieren/exportieren",
        "Name[en_GB]": "Import Export GMX",
        "Name[es]": "Importar/Exportar GMX",
        "Name[et]": "GMX import ja eksport",
        "Name[fi]": "Tuo/vie GMX",
        "Name[fr]": "Import export GMX",
        "Name[gl]": "Importar e exportar GMX",
        "Name[ia]": "Importa Exporta GMX",
        "Name[it]": "Importa/esporta GMX",
        "Name[ko]": "GMX 가져오기/내보내기",
        "Name[nl]": "GMX importeren/exporteren",
        "Name[pl]": "Importuj/Eksportuj GMX",
        "Name[pt]": "Importação/Exportação de GMX",
        "Name[pt_BR]": "Importação/Exportação do GMX",
        "Name[ru]": "Импорт и экспорт GMX",
        "Name[sk]": "Import Export GMX",
        "Name[sl]": "Uvozi/izvozi GMX",
        "Name[sr@ijekavian]": "Увоз/извоз са ГМИкс‑а",
        "Name[sr@ijekavianlatin]": "Uvoz/izvoz sa GMX‑a",
        "Name[sr@latin]": "Uvoz/izvoz sa GMX‑a",
        "Name[sr]": "Увоз/извоз са ГМИкс‑а",
        "Name[sv]": "Importera och exportera GMX",
        "Name[tr]": "GMX İçe/Dışa Aktar",
        "Name[uk]": "Імпортування та експортування GMX",
        "Name[x-test]": "xxImport Export GMXxx",
        "Name[zh_CN]": "导入导出 GMX",
        "Version": "1.0"
    }
}
