{
    "KPlugin": {
        "Description": "This plugin allows you to import/export CSV.",
        "Description[ar]": "تتيح لك هذه الملحقة استيراد وتصدير CSV.",
        "Description[az]": "Bu əlavə, sizə CSV-ləri idxal/ixrac etməyə imkan verir.",
        "Description[ca@valencia]": "Aquest connector permet importar o exportar els CSV.",
        "Description[ca]": "Aquest connector permet importar o exportar els CSV.",
        "Description[cs]": "Tento modul umožňuje import/export CSV.",
        "Description[de]": "Mit diesem Modul können Sie CSV importieren oder exportieren.",
        "Description[en_GB]": "This plugin allows you to import/export CSV.",
        "Description[es]": "Este complemento le permite importar/exportar CSV.",
        "Description[et]": "See plugin võimaldab importida ja eksportida CSV.",
        "Description[fi]": "Tällä liitännäisellä voi tuoda ja viedä CSV-tiedostoja",
        "Description[fr]": "Ce module permet d'importer / exporter en CSV.",
        "Description[gl]": "Este complemento permítelle importar e exportar CSV.",
        "Description[ia]": "Iste plugin te permitte importar/exportar CSV.",
        "Description[it]": "Questa estensione permette di importare ed esportare CSV.",
        "Description[ko]": "이 플러그인은 CSV 파일에서 가져오거나 내보냅니다.",
        "Description[nl]": "Deze plug-in stelt u in staat CSV te importeren/exporteren.",
        "Description[pl]": "Ta wtyczka umożliwia importowanie/eksportowanie CSV.",
        "Description[pt]": "Este 'plugin' permite-lhe importar/exportar dados em CSV.",
        "Description[pt_BR]": "Este plugin permite a você importar/exportar de CSV.",
        "Description[ru]": "Этот модуль позволяет импортировать и экспортировать из/в CSV.",
        "Description[sk]": "Tento plugin vám umožní importovať a exportovať CSV.",
        "Description[sl]": "Ta vstavek omogoča uvoz/izvoz datotek CSV.",
        "Description[sr@ijekavian]": "Овај прикључак омогућава увоз и извоз ЦСВ‑а",
        "Description[sr@ijekavianlatin]": "Ovaj priključak omogućava uvoz i izvoz CSV‑a",
        "Description[sr@latin]": "Ovaj priključak omogućava uvoz i izvoz CSV‑a",
        "Description[sr]": "Овај прикључак омогућава увоз и извоз ЦСВ‑а",
        "Description[sv]": "Insticksprogrammet gör det möjligt att importera och exportera CSV.",
        "Description[tr]": "Bu eklenti, CSV içe/dışa aktarmanıza imkan verir.",
        "Description[uk]": "За допомогою цього додатка можна імпортувати та експортувати дані у форматі CSV.",
        "Description[x-test]": "xxThis plugin allows you to import/export CSV.xx",
        "Description[zh_CN]": "此插件能让您导入或导出 CSV 表格。",
        "EnabledByDefault": "true",
        "Id": "kaddressbookimportexportcsv",
        "Name": "Import/Export CSV",
        "Name[ar]": "استيراد/تصدير CSV",
        "Name[az]": "CSV idxal/ixrac",
        "Name[ca@valencia]": "Importa/exporta el CSV",
        "Name[ca]": "Importa/exporta el CSV",
        "Name[cs]": "Importovat/Exportovat CSV",
        "Name[de]": "CSV importieren/exportieren",
        "Name[en_GB]": "Import/Export CSV",
        "Name[es]": "Importar/Exportar CSV",
        "Name[et]": "CSV import/eksport",
        "Name[fi]": "Tuo/vie CSV-tietoja",
        "Name[fr]": "Import / export CSV",
        "Name[gl]": "Importa e exportar CSV",
        "Name[ia]": "Importa/Exporta CSV",
        "Name[it]": "Importa/esporta CSV",
        "Name[ko]": "CSV 가져오기/내보내기",
        "Name[nl]": "CSV importeren/exporteren",
        "Name[pl]": "Importuj/Eksportuj CSV",
        "Name[pt]": "Importação/Exportação de CSV",
        "Name[pt_BR]": "Importação/Exportação de CSV",
        "Name[ru]": "Импорт и экспорт CSV",
        "Name[sk]": "Import/Export CSV",
        "Name[sl]": "Uvozi/izvozi CSV",
        "Name[sr@ijekavian]": "Увоз/извоз ЦСВ‑а",
        "Name[sr@ijekavianlatin]": "Uvoz/izvoz CSV‑a",
        "Name[sr@latin]": "Uvoz/izvoz CSV‑a",
        "Name[sr]": "Увоз/извоз ЦСВ‑а",
        "Name[sv]": "Importera och exportera CSV",
        "Name[tr]": "CSV İçe/Dışa Aktar",
        "Name[uk]": "Імпортування та експортування CSV",
        "Name[x-test]": "xxImport/Export CSVxx",
        "Name[zh_CN]": "导入/导出 CSV 表格",
        "Version": "1.0"
    }
}
