{
    "KPlugin": {
        "Name": "TinyUrl",
        "Name[ar]": "TinyUrl",
        "Name[az]": "TinyUrl",
        "Name[ca@valencia]": "TinyUrl",
        "Name[ca]": "TinyUrl",
        "Name[cs]": "TinyUrl",
        "Name[da]": "TinyUrl",
        "Name[de]": "TinyUrl",
        "Name[en_GB]": "TinyUrl",
        "Name[es]": "TinyUrl",
        "Name[et]": "TinyUrl",
        "Name[fi]": "TinyUrl",
        "Name[fr]": "TinyUrl",
        "Name[gl]": "TinyUrl",
        "Name[ia]": "Tinyurl",
        "Name[it]": "TinyUrl",
        "Name[ko]": "TinyUrl",
        "Name[nl]": "TinyUrl",
        "Name[pl]": "TinyUrl",
        "Name[pt]": "TinyUrl",
        "Name[pt_BR]": "TinyUrl",
        "Name[ru]": "TinyUrl",
        "Name[sk]": "TinyUrl",
        "Name[sl]": "TinyUrl",
        "Name[sr@ijekavian]": "ТајниУРЛ",
        "Name[sr@ijekavianlatin]": "TinyURL",
        "Name[sr@latin]": "TinyURL",
        "Name[sr]": "ТајниУРЛ",
        "Name[sv]": "TinyUrl",
        "Name[tr]": "TinyUrl",
        "Name[uk]": "TinyUrl",
        "Name[x-test]": "xxTinyUrlxx",
        "Name[zh_CN]": "TinyUrl",
        "Version": "1.0"
    }
}
